{
    "grille": [10, 10],
    "navires": [
        {
            "nom": "torpilleur",
            "structure": [
                [1, 1]
            ]
        },
        {
            "nom": "destroyer",
            "structure": [
                [1, 1, 1]
            ]
        },
        {
            "nom": "sub",
            "structure": [
                [0, 1, 0],
                [1, 1, 1]
            ]
        },
        {
            "nom": "canonière",
            "structure": [
                [1, 1, 1, 1]
            ]
        },
        {
            "nom": "porte avion",
            "structure": [
                [1, 1, 1, 1, 1]
            ]
        }
    ]
}


